{
  "juegos": {},
  "twitchInfo": {
    "title": "what is being played?",
    "src": "https://player.twitch.tv/?channel=elgonboi&parent=localhost"
  },
  "youtubeInfo": {
    "title": "what is being played?",
    "src": "https://www.youtube.com/embed/LOU_fmYZF0o"
  }
}